^D:\WORK\QGF2D2013\DEV\COMPONENTS\SFML\AUDIO\ALCHECK.CPP
/c /I"D:/work/SFML-2.0/include" /I"D:/work/SFML-2.0/src" /I"D:/work/SFML-2.0/extlibs/headers/AL" /I"D:/work/SFML-2.0/extlibs/headers/libsndfile/windows" /Zi /nologo /W3 /WX- /Od /Ob0 /Oy- /D WIN32 /D _WINDOWS /D _DEBUG /D _CRT_SECURE_NO_DEPRECATE /D SFML_AUDIO_EXPORTS /D _WINDLL /D _MBCS /Gm- /EHsc /RTC1 /MDd /GS /fp:precise /Zc:wchar_t /Zc:forScope /GR /Fo"sfml-audio.dir\Debug\\" /Fd"D:/work/SFML-2.0/build1/lib/Debug/sfml-audio-d.pdb" /Gd /TP /analyze- /errorReport:prompt  /Zm1000  D:\WORK\QGF2D2013\DEV\COMPONENTS\SFML\AUDIO\ALCHECK.CPP
^D:\WORK\QGF2D2013\DEV\COMPONENTS\SFML\AUDIO\AUDIODEVICE.CPP
/c /I"D:/work/SFML-2.0/include" /I"D:/work/SFML-2.0/src" /I"D:/work/SFML-2.0/extlibs/headers/AL" /I"D:/work/SFML-2.0/extlibs/headers/libsndfile/windows" /Zi /nologo /W3 /WX- /Od /Ob0 /Oy- /D WIN32 /D _WINDOWS /D _DEBUG /D _CRT_SECURE_NO_DEPRECATE /D SFML_AUDIO_EXPORTS /D _WINDLL /D _MBCS /Gm- /EHsc /RTC1 /MDd /GS /fp:precise /Zc:wchar_t /Zc:forScope /GR /Fo"sfml-audio.dir\Debug\\" /Fd"D:/work/SFML-2.0/build1/lib/Debug/sfml-audio-d.pdb" /Gd /TP /analyze- /errorReport:prompt  /Zm1000  D:\WORK\QGF2D2013\DEV\COMPONENTS\SFML\AUDIO\AUDIODEVICE.CPP
^D:\WORK\QGF2D2013\DEV\COMPONENTS\SFML\AUDIO\LISTENER.CPP
/c /I"D:/work/SFML-2.0/include" /I"D:/work/SFML-2.0/src" /I"D:/work/SFML-2.0/extlibs/headers/AL" /I"D:/work/SFML-2.0/extlibs/headers/libsndfile/windows" /Zi /nologo /W3 /WX- /Od /Ob0 /Oy- /D WIN32 /D _WINDOWS /D _DEBUG /D _CRT_SECURE_NO_DEPRECATE /D SFML_AUDIO_EXPORTS /D _WINDLL /D _MBCS /Gm- /EHsc /RTC1 /MDd /GS /fp:precise /Zc:wchar_t /Zc:forScope /GR /Fo"sfml-audio.dir\Debug\\" /Fd"D:/work/SFML-2.0/build1/lib/Debug/sfml-audio-d.pdb" /Gd /TP /analyze- /errorReport:prompt  /Zm1000  D:\WORK\QGF2D2013\DEV\COMPONENTS\SFML\AUDIO\LISTENER.CPP
^D:\WORK\QGF2D2013\DEV\COMPONENTS\SFML\AUDIO\MUSIC.CPP
/c /I"D:/work/SFML-2.0/include" /I"D:/work/SFML-2.0/src" /I"D:/work/SFML-2.0/extlibs/headers/AL" /I"D:/work/SFML-2.0/extlibs/headers/libsndfile/windows" /Zi /nologo /W3 /WX- /Od /Ob0 /Oy- /D WIN32 /D _WINDOWS /D _DEBUG /D _CRT_SECURE_NO_DEPRECATE /D SFML_AUDIO_EXPORTS /D _WINDLL /D _MBCS /Gm- /EHsc /RTC1 /MDd /GS /fp:precise /Zc:wchar_t /Zc:forScope /GR /Fo"sfml-audio.dir\Debug\\" /Fd"D:/work/SFML-2.0/build1/lib/Debug/sfml-audio-d.pdb" /Gd /TP /analyze- /errorReport:prompt  /Zm1000  D:\WORK\QGF2D2013\DEV\COMPONENTS\SFML\AUDIO\MUSIC.CPP
^D:\WORK\QGF2D2013\DEV\COMPONENTS\SFML\AUDIO\SOUND.CPP
/c /I"D:/work/SFML-2.0/include" /I"D:/work/SFML-2.0/src" /I"D:/work/SFML-2.0/extlibs/headers/AL" /I"D:/work/SFML-2.0/extlibs/headers/libsndfile/windows" /Zi /nologo /W3 /WX- /Od /Ob0 /Oy- /D WIN32 /D _WINDOWS /D _DEBUG /D _CRT_SECURE_NO_DEPRECATE /D SFML_AUDIO_EXPORTS /D _WINDLL /D _MBCS /Gm- /EHsc /RTC1 /MDd /GS /fp:precise /Zc:wchar_t /Zc:forScope /GR /Fo"sfml-audio.dir\Debug\\" /Fd"D:/work/SFML-2.0/build1/lib/Debug/sfml-audio-d.pdb" /Gd /TP /analyze- /errorReport:prompt  /Zm1000  D:\WORK\QGF2D2013\DEV\COMPONENTS\SFML\AUDIO\SOUND.CPP
^D:\WORK\QGF2D2013\DEV\COMPONENTS\SFML\AUDIO\SOUNDBUFFER.CPP
/c /I"D:/work/SFML-2.0/include" /I"D:/work/SFML-2.0/src" /I"D:/work/SFML-2.0/extlibs/headers/AL" /I"D:/work/SFML-2.0/extlibs/headers/libsndfile/windows" /Zi /nologo /W3 /WX- /Od /Ob0 /Oy- /D WIN32 /D _WINDOWS /D _DEBUG /D _CRT_SECURE_NO_DEPRECATE /D SFML_AUDIO_EXPORTS /D _WINDLL /D _MBCS /Gm- /EHsc /RTC1 /MDd /GS /fp:precise /Zc:wchar_t /Zc:forScope /GR /Fo"sfml-audio.dir\Debug\\" /Fd"D:/work/SFML-2.0/build1/lib/Debug/sfml-audio-d.pdb" /Gd /TP /analyze- /errorReport:prompt  /Zm1000  D:\WORK\QGF2D2013\DEV\COMPONENTS\SFML\AUDIO\SOUNDBUFFER.CPP
^D:\WORK\QGF2D2013\DEV\COMPONENTS\SFML\AUDIO\SOUNDBUFFERRECORDER.CPP
/c /I"D:/work/SFML-2.0/include" /I"D:/work/SFML-2.0/src" /I"D:/work/SFML-2.0/extlibs/headers/AL" /I"D:/work/SFML-2.0/extlibs/headers/libsndfile/windows" /Zi /nologo /W3 /WX- /Od /Ob0 /Oy- /D WIN32 /D _WINDOWS /D _DEBUG /D _CRT_SECURE_NO_DEPRECATE /D SFML_AUDIO_EXPORTS /D _WINDLL /D _MBCS /Gm- /EHsc /RTC1 /MDd /GS /fp:precise /Zc:wchar_t /Zc:forScope /GR /Fo"sfml-audio.dir\Debug\\" /Fd"D:/work/SFML-2.0/build1/lib/Debug/sfml-audio-d.pdb" /Gd /TP /analyze- /errorReport:prompt  /Zm1000  D:\WORK\QGF2D2013\DEV\COMPONENTS\SFML\AUDIO\SOUNDBUFFERRECORDER.CPP
^D:\WORK\QGF2D2013\DEV\COMPONENTS\SFML\AUDIO\SOUNDFILE.CPP
/c /I"D:/work/SFML-2.0/include" /I"D:/work/SFML-2.0/src" /I"D:/work/SFML-2.0/extlibs/headers/AL" /I"D:/work/SFML-2.0/extlibs/headers/libsndfile/windows" /Zi /nologo /W3 /WX- /Od /Ob0 /Oy- /D WIN32 /D _WINDOWS /D _DEBUG /D _CRT_SECURE_NO_DEPRECATE /D SFML_AUDIO_EXPORTS /D _WINDLL /D _MBCS /Gm- /EHsc /RTC1 /MDd /GS /fp:precise /Zc:wchar_t /Zc:forScope /GR /Fo"sfml-audio.dir\Debug\\" /Fd"D:/work/SFML-2.0/build1/lib/Debug/sfml-audio-d.pdb" /Gd /TP /analyze- /errorReport:prompt  /Zm1000  D:\WORK\QGF2D2013\DEV\COMPONENTS\SFML\AUDIO\SOUNDFILE.CPP
^D:\WORK\QGF2D2013\DEV\COMPONENTS\SFML\AUDIO\SOUNDRECORDER.CPP
/c /I"D:/work/SFML-2.0/include" /I"D:/work/SFML-2.0/src" /I"D:/work/SFML-2.0/extlibs/headers/AL" /I"D:/work/SFML-2.0/extlibs/headers/libsndfile/windows" /Zi /nologo /W3 /WX- /Od /Ob0 /Oy- /D WIN32 /D _WINDOWS /D _DEBUG /D _CRT_SECURE_NO_DEPRECATE /D SFML_AUDIO_EXPORTS /D _WINDLL /D _MBCS /Gm- /EHsc /RTC1 /MDd /GS /fp:precise /Zc:wchar_t /Zc:forScope /GR /Fo"sfml-audio.dir\Debug\\" /Fd"D:/work/SFML-2.0/build1/lib/Debug/sfml-audio-d.pdb" /Gd /TP /analyze- /errorReport:prompt  /Zm1000  D:\WORK\QGF2D2013\DEV\COMPONENTS\SFML\AUDIO\SOUNDRECORDER.CPP
^D:\WORK\QGF2D2013\DEV\COMPONENTS\SFML\AUDIO\SOUNDSOURCE.CPP
/c /I"D:/work/SFML-2.0/include" /I"D:/work/SFML-2.0/src" /I"D:/work/SFML-2.0/extlibs/headers/AL" /I"D:/work/SFML-2.0/extlibs/headers/libsndfile/windows" /Zi /nologo /W3 /WX- /Od /Ob0 /Oy- /D WIN32 /D _WINDOWS /D _DEBUG /D _CRT_SECURE_NO_DEPRECATE /D SFML_AUDIO_EXPORTS /D _WINDLL /D _MBCS /Gm- /EHsc /RTC1 /MDd /GS /fp:precise /Zc:wchar_t /Zc:forScope /GR /Fo"sfml-audio.dir\Debug\\" /Fd"D:/work/SFML-2.0/build1/lib/Debug/sfml-audio-d.pdb" /Gd /TP /analyze- /errorReport:prompt  /Zm1000  D:\WORK\QGF2D2013\DEV\COMPONENTS\SFML\AUDIO\SOUNDSOURCE.CPP
^D:\WORK\QGF2D2013\DEV\COMPONENTS\SFML\AUDIO\SOUNDSTREAM.CPP
/c /I"D:/work/SFML-2.0/include" /I"D:/work/SFML-2.0/src" /I"D:/work/SFML-2.0/extlibs/headers/AL" /I"D:/work/SFML-2.0/extlibs/headers/libsndfile/windows" /Zi /nologo /W3 /WX- /Od /Ob0 /Oy- /D WIN32 /D _WINDOWS /D _DEBUG /D _CRT_SECURE_NO_DEPRECATE /D SFML_AUDIO_EXPORTS /D _WINDLL /D _MBCS /Gm- /EHsc /RTC1 /MDd /GS /fp:precise /Zc:wchar_t /Zc:forScope /GR /Fo"sfml-audio.dir\Debug\\" /Fd"D:/work/SFML-2.0/build1/lib/Debug/sfml-audio-d.pdb" /Gd /TP /analyze- /errorReport:prompt  /Zm1000  D:\WORK\QGF2D2013\DEV\COMPONENTS\SFML\AUDIO\SOUNDSTREAM.CPP
