^D:\WORK\QGF2D2013\DEV\COMPONENTS\SFML\AUDIO\ALCHECK.CPP|D:\WORK\QGF2D2013\DEV\COMPONENTS\SFML\AUDIO\AUDIODEVICE.CPP|D:\WORK\QGF2D2013\DEV\COMPONENTS\SFML\AUDIO\LISTENER.CPP|D:\WORK\QGF2D2013\DEV\COMPONENTS\SFML\AUDIO\MUSIC.CPP|D:\WORK\QGF2D2013\DEV\COMPONENTS\SFML\AUDIO\SOUND.CPP|D:\WORK\QGF2D2013\DEV\COMPONENTS\SFML\AUDIO\SOUNDBUFFER.CPP|D:\WORK\QGF2D2013\DEV\COMPONENTS\SFML\AUDIO\SOUNDBUFFERRECORDER.CPP|D:\WORK\QGF2D2013\DEV\COMPONENTS\SFML\AUDIO\SOUNDFILE.CPP|D:\WORK\QGF2D2013\DEV\COMPONENTS\SFML\AUDIO\SOUNDRECORDER.CPP|D:\WORK\QGF2D2013\DEV\COMPONENTS\SFML\AUDIO\SOUNDSOURCE.CPP|D:\WORK\QGF2D2013\DEV\COMPONENTS\SFML\AUDIO\SOUNDSTREAM.CPP
D:\WORK\QGF2D2013\DEV\COMPONENTS\SFML\AUDIO\SFML-AUDIO.DIR\DEBUG\SOUNDSTREAM.OBJ
D:\WORK\QGF2D2013\DEV\COMPONENTS\SFML\AUDIO\SFML-AUDIO.DIR\DEBUG\SOUNDSOURCE.OBJ
D:\WORK\QGF2D2013\DEV\COMPONENTS\SFML\AUDIO\SFML-AUDIO.DIR\DEBUG\SOUNDRECORDER.OBJ
D:\WORK\QGF2D2013\DEV\COMPONENTS\SFML\AUDIO\SFML-AUDIO.DIR\DEBUG\SOUNDFILE.OBJ
D:\WORK\QGF2D2013\DEV\COMPONENTS\SFML\AUDIO\SFML-AUDIO.DIR\DEBUG\SOUNDBUFFERRECORDER.OBJ
D:\WORK\QGF2D2013\DEV\COMPONENTS\SFML\AUDIO\SFML-AUDIO.DIR\DEBUG\SOUNDBUFFER.OBJ
D:\WORK\QGF2D2013\DEV\COMPONENTS\SFML\AUDIO\SFML-AUDIO.DIR\DEBUG\SOUND.OBJ
D:\WORK\QGF2D2013\DEV\COMPONENTS\SFML\AUDIO\SFML-AUDIO.DIR\DEBUG\MUSIC.OBJ
D:\WORK\QGF2D2013\DEV\COMPONENTS\SFML\AUDIO\SFML-AUDIO.DIR\DEBUG\LISTENER.OBJ
D:\WORK\QGF2D2013\DEV\COMPONENTS\SFML\AUDIO\SFML-AUDIO.DIR\DEBUG\AUDIODEVICE.OBJ
D:\WORK\QGF2D2013\DEV\COMPONENTS\SFML\AUDIO\SFML-AUDIO.DIR\DEBUG\ALCHECK.OBJ
^D:\WORK\QGF2D2013\DEV\COMPONENTS\SFML\AUDIO\ALCHECK.CPP
D:\WORK\SFML-2.0\BUILD1\LIB\DEBUG\SFML-AUDIO-D.PDB
^D:\WORK\QGF2D2013\DEV\COMPONENTS\SFML\AUDIO\AUDIODEVICE.CPP
D:\WORK\SFML-2.0\BUILD1\LIB\DEBUG\SFML-AUDIO-D.PDB
^D:\WORK\QGF2D2013\DEV\COMPONENTS\SFML\AUDIO\LISTENER.CPP
D:\WORK\SFML-2.0\BUILD1\LIB\DEBUG\SFML-AUDIO-D.PDB
^D:\WORK\QGF2D2013\DEV\COMPONENTS\SFML\AUDIO\MUSIC.CPP
D:\WORK\SFML-2.0\BUILD1\LIB\DEBUG\SFML-AUDIO-D.PDB
^D:\WORK\QGF2D2013\DEV\COMPONENTS\SFML\AUDIO\SOUND.CPP
D:\WORK\SFML-2.0\BUILD1\LIB\DEBUG\SFML-AUDIO-D.PDB
^D:\WORK\QGF2D2013\DEV\COMPONENTS\SFML\AUDIO\SOUNDBUFFER.CPP
D:\WORK\SFML-2.0\BUILD1\LIB\DEBUG\SFML-AUDIO-D.PDB
^D:\WORK\QGF2D2013\DEV\COMPONENTS\SFML\AUDIO\SOUNDBUFFERRECORDER.CPP
D:\WORK\SFML-2.0\BUILD1\LIB\DEBUG\SFML-AUDIO-D.PDB
^D:\WORK\QGF2D2013\DEV\COMPONENTS\SFML\AUDIO\SOUNDFILE.CPP
D:\WORK\SFML-2.0\BUILD1\LIB\DEBUG\SFML-AUDIO-D.PDB
^D:\WORK\QGF2D2013\DEV\COMPONENTS\SFML\AUDIO\SOUNDRECORDER.CPP
D:\WORK\SFML-2.0\BUILD1\LIB\DEBUG\SFML-AUDIO-D.PDB
^D:\WORK\QGF2D2013\DEV\COMPONENTS\SFML\AUDIO\SOUNDSOURCE.CPP
D:\WORK\SFML-2.0\BUILD1\LIB\DEBUG\SFML-AUDIO-D.PDB
^D:\WORK\QGF2D2013\DEV\COMPONENTS\SFML\AUDIO\SOUNDSTREAM.CPP
D:\WORK\SFML-2.0\BUILD1\LIB\DEBUG\SFML-AUDIO-D.PDB
