^D:\WORK\QGF2D2013\SRC\SFML\AUDIO\CMAKELISTS.TXT
D:\WORK\SFML-2.0\SRC\SFML\AUDIO\CMAKELISTS.TXT
C:\PROGRAM FILES (X86)\CMAKE 2.8\SHARE\CMAKE-2.8\MODULES\FINDOPENAL.CMAKE
C:\PROGRAM FILES (X86)\CMAKE 2.8\SHARE\CMAKE-2.8\MODULES\FINDPACKAGEHANDLESTANDARDARGS.CMAKE
C:\PROGRAM FILES (X86)\CMAKE 2.8\SHARE\CMAKE-2.8\MODULES\FINDPACKAGEMESSAGE.CMAKE
C:\PROGRAM FILES (X86)\CMAKE 2.8\SHARE\CMAKE-2.8\MODULES\CMAKEPARSEARGUMENTS.CMAKE
D:\WORK\SFML-2.0\CMAKE\MODULES\FINDSNDFILE.CMAKE
