^D:\WORK\QGF2D2013\DEV\COMPONENTS\SFML\AUDIO\SFML-AUDIO.DIR\DEBUG\SFML-AUDIO-D-2_MANIFEST.RC
C:\WINDOWS\GLOBALIZATION\SORTING\SORTDEFAULT.NLS
C:\WINDOWS\SYSWOW64\NTDLL.DLL
C:\WINDOWS\SYSWOW64\KERNELBASE.DLL
C:\WINDOWS\SYSTEM32\FLTLIB.DLL
C:\WINDOWS\SYSWOW64\KERNEL32.DLL
C:\WINDOWS\SYSWOW64\ADVAPI32.DLL
C:\WINDOWS\SYSWOW64\GDI32.DLL
C:\WINDOWS\SYSWOW64\USER32.DLL
D:\WORK\QGF2D2013\DEV\COMPONENTS\SFML\AUDIO\SFML-AUDIO.DIR\DEBUG\SFML-AUDIO-D-2.DLL.EMBED.MANIFEST
